
{"photos":{"page":1,"pages":1375,"perpage":100,"total":"137480","photo":[{"id":"32848687068","owner":"24354425@N03","secret":"91d7a62796","server":"7818","farm":8,"title":"Butting Heads","ispublic":1,"isfriend":0,"isfamily":0},{"id":"45998945624","owner":"154263620@N07","secret":"f8a146971a","server":"7813","farm":8,"title":"My Chi and Me","ispublic":1,"isfriend":0,"isfamily":0},{"id":"31782146297","owner":"167489633@N04","secret":"e72d66811b","server":"4869","farm":5,"title":"katze_39826687422_o","ispublic":1,"isfriend":0,"isfamily":0},{"id":"45808057655","owner":"31532778@N04","secret":"3d7d0f9e43","server":"4902","farm":5,"title":"IMGP6073","ispublic":1,"isfriend":0,"isfamily":0},{"id":"45998780484","owner":"31532778@N04","secret":"aef12eb2e5","server":"7900","farm":8,"title":"IMGP6074","ispublic":1,"isfriend":0,"isfamily":0},{"id":"45998780164","owner":"31532778@N04","secret":"66d88fe3c7","server":"4846","farm":5,"title":"IMGP6077","ispublic":1,"isfriend":0,"isfamily":0},{"id":"45808056655","owner":"31532778@N04","secret":"bc91b0bf51","server":"7815","farm":8,"title":"IMGP6080","ispublic":1,"isfriend":0,"isfamily":0},{"id":"39758619033","owner":"31532778@N04","secret":"e6c82975f6","server":"4897","farm":5,"title":"IMGP6081","ispublic":1,"isfriend":0,"isfamily":0},{"id":"45808056025","owner":"31532778@N04","secret":"bde459634b","server":"7828","farm":8,"title":"IMGP6082","ispublic":1,"isfriend":0,"isfamily":0},{"id":"39758617973","owner":"31532778@N04","secret":"b3b299e4b3","server":"4856","farm":5,"title":"IMGP6084","ispublic":1,"isfriend":0,"isfamily":0},{"id":"39758617133","owner":"31532778@N04","secret":"ec6827cc28","server":"7884","farm":8,"title":"IMGP6091","ispublic":1,"isfriend":0,"isfamily":0},{"id":"39758616373","owner":"31532778@N04","secret":"50c07442b0","server":"7858","farm":8,"title":"IMGP6096","ispublic":1,"isfriend":0,"isfamily":0},{"id":"45808054635","owner":"31532778@N04","secret":"24c4018c5c","server":"7903","farm":8,"title":"IMGP6098","ispublic":1,"isfriend":0,"isfamily":0},{"id":"39758613773","owner":"31532778@N04","secret":"c32283b252","server":"4814","farm":5,"title":"IMGP6140","ispublic":1,"isfriend":0,"isfamily":0},{"id":"31782007967","owner":"31532778@N04","secret":"9b99a49cb6","server":"4818","farm":5,"title":"IMGP6141","ispublic":1,"isfriend":0,"isfamily":0},{"id":"45998774434","owner":"31532778@N04","secret":"c5107f0c17","server":"4818","farm":5,"title":"IMGP6228","ispublic":1,"isfriend":0,"isfamily":0},{"id":"45808047495","owner":"31532778@N04","secret":"6c60f3f160","server":"4835","farm":5,"title":"IMGP6259","ispublic":1,"isfriend":0,"isfamily":0},{"id":"39758605203","owner":"31532778@N04","secret":"1f1d96b0dd","server":"7881","farm":8,"title":"IMGP6261","ispublic":1,"isfriend":0,"isfamily":0},{"id":"45998610404","owner":"62289796@N04","secret":"9b14311ab8","server":"7846","farm":8,"title":"Lazy cat","ispublic":1,"isfriend":0,"isfamily":0},{"id":"31781853807","owner":"144735140@N08","secret":"442a5fd8a8","server":"7827","farm":8,"title":"Police-officer-braves-busy-highway-to-save-kitten","ispublic":1,"isfriend":0,"isfamily":0},{"id":"31781657067","owner":"153237179@N02","secret":"e10aae1f6b","server":"7820","farm":8,"title":"MISSING - black with patches of white, nine month old male cat, no collar. #LincolnPark SW area, across from Mount Royal University. If you see him, please call 587-581-2469 or email tracydeekijiji@gmail.com. Pls RT, watch, share to help locate Scout. YYC","ispublic":1,"isfriend":0,"isfamily":0},{"id":"46723046521","owner":"53637106@N05","secret":"8df3fa9ec6","server":"4830","farm":5,"title":"Done for the night","ispublic":1,"isfriend":0,"isfamily":0},{"id":"45807356165","owner":"125454333@N02","secret":"20b4eccb68","server":"7809","farm":8,"title":"Eurasian Red Squirrel (Sciurus vulgaris).","ispublic":1,"isfriend":0,"isfamily":0},{"id":"39757756503","owner":"168882965@N05","secret":"8392f010ce","server":"4908","farm":5,"title":"Funniest Cat : 21 Times Tumblr Told The Truth About Cats","ispublic":1,"isfriend":0,"isfamily":0},{"id":"45807159005","owner":"11344347@N02","secret":"9a0d56760a","server":"7800","farm":8,"title":"201810-1 279","ispublic":1,"isfriend":0,"isfamily":0},{"id":"32847657328","owner":"11344347@N02","secret":"1a095f2bca","server":"4827","farm":5,"title":"201810-1 280","ispublic":1,"isfriend":0,"isfamily":0},{"id":"45807154395","owner":"11344347@N02","secret":"3d1f1195fb","server":"4852","farm":5,"title":"201812-1 5090","ispublic":1,"isfriend":0,"isfamily":0},{"id":"32847653728","owner":"11344347@N02","secret":"07bc1f9304","server":"7878","farm":8,"title":"20180329 423","ispublic":1,"isfriend":0,"isfamily":0},{"id":"32847653608","owner":"11344347@N02","secret":"81b3538b59","server":"4812","farm":5,"title":"20180329 425","ispublic":1,"isfriend":0,"isfamily":0},{"id":"31781155787","owner":"11344347@N02","secret":"83dc84582a","server":"7878","farm":8,"title":"201810-1 733","ispublic":1,"isfriend":0,"isfamily":0},{"id":"31781155487","owner":"11344347@N02","secret":"a1cbbfc54b","server":"4893","farm":5,"title":"201810-1 738","ispublic":1,"isfriend":0,"isfamily":0},{"id":"39757614553","owner":"11344347@N02","secret":"fb8c91f0f7","server":"7903","farm":8,"title":"201810-1 742","ispublic":1,"isfriend":0,"isfamily":0},{"id":"32847650588","owner":"11344347@N02","secret":"30d9dfda0e","server":"4803","farm":5,"title":"201812-1 4551","ispublic":1,"isfriend":0,"isfamily":0},{"id":"46669771202","owner":"11344347@N02","secret":"6859dc410a","server":"4835","farm":5,"title":"201812-1 4775","ispublic":1,"isfriend":0,"isfamily":0},{"id":"39757627663","owner":"11344347@N02","secret":"cd023a7291","server":"4851","farm":5,"title":"201809-1 271","ispublic":1,"isfriend":0,"isfamily":0},{"id":"39757627073","owner":"11344347@N02","secret":"80d725ae49","server":"7870","farm":8,"title":"201809-1 273","ispublic":1,"isfriend":0,"isfamily":0},{"id":"39757625673","owner":"11344347@N02","secret":"84589ac58c","server":"4859","farm":5,"title":"201809-1 281","ispublic":1,"isfriend":0,"isfamily":0},{"id":"32847653518","owner":"11344347@N02","secret":"1b2b7fe99c","server":"7921","farm":8,"title":"201809-1 275","ispublic":1,"isfriend":0,"isfamily":0},{"id":"31781157647","owner":"11344347@N02","secret":"55c72219ce","server":"7869","farm":8,"title":"201809-1 277","ispublic":1,"isfriend":0,"isfamily":0},{"id":"39757617923","owner":"11344347@N02","secret":"f9995d3c0a","server":"4869","farm":5,"title":"201809-1 290","ispublic":1,"isfriend":0,"isfamily":0},{"id":"45997892194","owner":"11344347@N02","secret":"3575acfaab","server":"7876","farm":8,"title":"201809-1 297","ispublic":1,"isfriend":0,"isfamily":0},{"id":"39757617293","owner":"11344347@N02","secret":"6a358a6b86","server":"4867","farm":5,"title":"201809-1 300","ispublic":1,"isfriend":0,"isfamily":0},{"id":"45997892004","owner":"11344347@N02","secret":"f1af075926","server":"4884","farm":5,"title":"201809-1 302","ispublic":1,"isfriend":0,"isfamily":0},{"id":"32847631008","owner":"11344347@N02","secret":"ca33be7fbe","server":"7906","farm":8,"title":"201808-1 280","ispublic":1,"isfriend":0,"isfamily":0},{"id":"32847630318","owner":"11344347@N02","secret":"65e35e2a20","server":"7920","farm":8,"title":"201808-1 302","ispublic":1,"isfriend":0,"isfamily":0},{"id":"45997860224","owner":"11344347@N02","secret":"af116f8e31","server":"4838","farm":5,"title":"201808-1 722","ispublic":1,"isfriend":0,"isfamily":0},{"id":"39757570333","owner":"11344347@N02","secret":"6d9e67a073","server":"7809","farm":8,"title":"201808-1 276","ispublic":1,"isfriend":0,"isfamily":0},{"id":"39757570233","owner":"11344347@N02","secret":"500a14cb7e","server":"4874","farm":5,"title":"201808-1 278","ispublic":1,"isfriend":0,"isfamily":0},{"id":"46722497731","owner":"11344347@N02","secret":"d5d993ba95","server":"7864","farm":8,"title":"201808-1 292","ispublic":1,"isfriend":0,"isfamily":0},{"id":"45807111015","owner":"11344347@N02","secret":"677b0de65f","server":"4867","farm":5,"title":"201808-1 310","ispublic":1,"isfriend":0,"isfamily":0},{"id":"45807109095","owner":"11344347@N02","secret":"bd2bf38100","server":"4915","farm":5,"title":"201808-1 587","ispublic":1,"isfriend":0,"isfamily":0},{"id":"46669723112","owner":"11344347@N02","secret":"01189cfea9","server":"4899","farm":5,"title":"201808-1 592","ispublic":1,"isfriend":0,"isfamily":0},{"id":"45806996315","owner":"156530954@N08","secret":"e62105d8f7","server":"4915","farm":5,"title":"Oh Hi","ispublic":1,"isfriend":0,"isfamily":0},{"id":"32847456448","owner":"11344347@N02","secret":"67ed37ac7e","server":"7862","farm":8,"title":"201808-1 086","ispublic":1,"isfriend":0,"isfamily":0},{"id":"45806936705","owner":"11344347@N02","secret":"f6207273bc","server":"4862","farm":5,"title":"201808-1 108","ispublic":1,"isfriend":0,"isfamily":0},{"id":"32847455538","owner":"11344347@N02","secret":"04e9b62e14","server":"7902","farm":8,"title":"201808-1 111","ispublic":1,"isfriend":0,"isfamily":0},{"id":"45997695934","owner":"85353544@N03","secret":"dacc642a9c","server":"7832","farm":8,"title":"\u592a\u7a7a\u55b5\ud83d\udc31 \u9810\u5099\u5099\uff5e","ispublic":1,"isfriend":0,"isfamily":0},{"id":"46722325491","owner":"146092270@N06","secret":"24e8f6a6ca","server":"7859","farm":8,"title":"Bright eyes @amy_simba \u2013 #cats #meowed #9gag\u2026","ispublic":1,"isfriend":0,"isfamily":0},{"id":"45806872665","owner":"11344347@N02","secret":"f65092b0c5","server":"7864","farm":8,"title":"201802-1 631","ispublic":1,"isfriend":0,"isfamily":0},{"id":"45997634434","owner":"11344347@N02","secret":"92f6ef15db","server":"4846","farm":5,"title":"201802-1 659","ispublic":1,"isfriend":0,"isfamily":0},{"id":"45806868605","owner":"11344347@N02","secret":"4083d75559","server":"7864","farm":8,"title":"201802-1 726","ispublic":1,"isfriend":0,"isfamily":0},{"id":"32847381898","owner":"11344347@N02","secret":"ce8298f425","server":"7910","farm":8,"title":"201806-1 078","ispublic":1,"isfriend":0,"isfamily":0},{"id":"32847381328","owner":"11344347@N02","secret":"da3ec54835","server":"7895","farm":8,"title":"201806-1 080","ispublic":1,"isfriend":0,"isfamily":0},{"id":"32847381098","owner":"11344347@N02","secret":"aef749fb3c","server":"4918","farm":5,"title":"201806-1 081","ispublic":1,"isfriend":0,"isfamily":0},{"id":"46722260331","owner":"11344347@N02","secret":"19a457a0f9","server":"7809","farm":8,"title":"201806-1 116","ispublic":1,"isfriend":0,"isfamily":0},{"id":"45997594714","owner":"11344347@N02","secret":"8623fa5da3","server":"7921","farm":8,"title":"201802-1 803","ispublic":1,"isfriend":0,"isfamily":0},{"id":"32847363548","owner":"11344347@N02","secret":"82c02a2330","server":"4832","farm":5,"title":"201806-1 122","ispublic":1,"isfriend":0,"isfamily":0},{"id":"46722145621","owner":"57946715@N05","secret":"d080b9db69","server":"4838","farm":5,"title":"sex_kittens_go_to_college_xl_30983184464_o","ispublic":1,"isfriend":0,"isfamily":0},{"id":"46722145181","owner":"57946715@N05","secret":"bbb08c9674","server":"7882","farm":8,"title":"sex-kittens-go-to-college-2_30983182154_o","ispublic":1,"isfriend":0,"isfamily":0},{"id":"46721963141","owner":"160665190@N02","secret":"b5103b858c","server":"4897","farm":5,"title":"DSC01558-Edit-2","ispublic":1,"isfriend":0,"isfamily":0},{"id":"45997110044","owner":"29501028@N00","secret":"569afb203f","server":"4809","farm":5,"title":"12Jan2019-Cat-IMG_8353","ispublic":1,"isfriend":0,"isfamily":0},{"id":"39756865353","owner":"29501028@N00","secret":"0e285841c5","server":"4873","farm":5,"title":"12Jan2019-Cat-IMG_8354","ispublic":1,"isfriend":0,"isfamily":0},{"id":"45997109544","owner":"29501028@N00","secret":"6da815993b","server":"7875","farm":8,"title":"12Jan2019-Cat-IMG_8359","ispublic":1,"isfriend":0,"isfamily":0},{"id":"31780323027","owner":"150879503@N07","secret":"f6e4f940aa","server":"7810","farm":8,"title":"kitten","ispublic":1,"isfriend":0,"isfamily":0},{"id":"32846796218","owner":"150879503@N07","secret":"53fbc09188","server":"4821","farm":5,"title":"kitten","ispublic":1,"isfriend":0,"isfamily":0},{"id":"45997025464","owner":"154602584@N03","secret":"2ac3406d7c","server":"7886","farm":8,"title":"CupidsGiftShop.com Swarovski Kitten Fiona The Siamese...","ispublic":1,"isfriend":0,"isfamily":0},{"id":"31779956127","owner":"137648724@N02","secret":"3f05151ec9","server":"7802","farm":8,"title":"Canada lynx kitten (15)","ispublic":1,"isfriend":0,"isfamily":0},{"id":"39756419623","owner":"123910143@N08","secret":"30f780ca57","server":"7836","farm":8,"title":"kitten.05","ispublic":1,"isfriend":0,"isfamily":0},{"id":"31779934187","owner":"123910143@N08","secret":"c0cd84a074","server":"4888","farm":5,"title":"kitten.04","ispublic":1,"isfriend":0,"isfamily":0},{"id":"39756419653","owner":"123910143@N08","secret":"3a465e1693","server":"7912","farm":8,"title":"kitten.03","ispublic":1,"isfriend":0,"isfamily":0},{"id":"39756419493","owner":"123910143@N08","secret":"b4f8dddc90","server":"7803","farm":8,"title":"kitten.14","ispublic":1,"isfriend":0,"isfamily":0},{"id":"39756419583","owner":"123910143@N08","secret":"be80357355","server":"4841","farm":5,"title":"kitten.08","ispublic":1,"isfriend":0,"isfamily":0},{"id":"31779934087","owner":"123910143@N08","secret":"bd61a312c5","server":"4903","farm":5,"title":"kitten.09","ispublic":1,"isfriend":0,"isfamily":0},{"id":"31779934067","owner":"123910143@N08","secret":"363c62d978","server":"4807","farm":5,"title":"kitten.11","ispublic":1,"isfriend":0,"isfamily":0},{"id":"39756419463","owner":"123910143@N08","secret":"51a903d7e4","server":"7879","farm":8,"title":"kitten.17","ispublic":1,"isfriend":0,"isfamily":0},{"id":"31779934137","owner":"123910143@N08","secret":"4af8bc644f","server":"4874","farm":5,"title":"kitten.06","ispublic":1,"isfriend":0,"isfamily":0},{"id":"31779934037","owner":"123910143@N08","secret":"2d47ea7827","server":"7815","farm":8,"title":"kitten.15","ispublic":1,"isfriend":0,"isfamily":0},{"id":"31779934017","owner":"123910143@N08","secret":"aedc0cdb1e","server":"4902","farm":5,"title":"kitten.18","ispublic":1,"isfriend":0,"isfamily":0},{"id":"31779933967","owner":"123910143@N08","secret":"1a5965a0cb","server":"7820","farm":8,"title":"kitten.21","ispublic":1,"isfriend":0,"isfamily":0},{"id":"39756419413","owner":"123910143@N08","secret":"9211f4bf11","server":"7891","farm":8,"title":"kitten.19","ispublic":1,"isfriend":0,"isfamily":0},{"id":"39756416963","owner":"123910143@N08","secret":"f611222917","server":"4815","farm":5,"title":"kitten.02","ispublic":1,"isfriend":0,"isfamily":0},{"id":"39756416883","owner":"123910143@N08","secret":"1b5aa5f169","server":"7839","farm":8,"title":"kitten.10","ispublic":1,"isfriend":0,"isfamily":0},{"id":"39756416913","owner":"123910143@N08","secret":"175836a494","server":"4912","farm":5,"title":"kitten.07","ispublic":1,"isfriend":0,"isfamily":0},{"id":"39756416763","owner":"123910143@N08","secret":"f4b375e623","server":"7891","farm":8,"title":"kitten.20","ispublic":1,"isfriend":0,"isfamily":0},{"id":"46668563612","owner":"123910143@N08","secret":"f8a45fd5e3","server":"7927","farm":8,"title":"kitten.16","ispublic":1,"isfriend":0,"isfamily":0},{"id":"39756416853","owner":"123910143@N08","secret":"4d1fa10762","server":"4869","farm":5,"title":"kitten.13","ispublic":1,"isfriend":0,"isfamily":0},{"id":"46668563532","owner":"123910143@N08","secret":"eb3ffb9fdd","server":"7863","farm":8,"title":"kitten.22","ispublic":1,"isfriend":0,"isfamily":0},{"id":"46668481212","owner":"125062404@N03","secret":"b81b1f2faa","server":"7905","farm":8,"title":"N\u00b0370 - Blow Kisses","ispublic":1,"isfriend":0,"isfamily":0},{"id":"46668568332","owner":"123910143@N08","secret":"9211b86368","server":"7887","farm":8,"title":"kitten.01","ispublic":1,"isfriend":0,"isfamily":0}]},"stat":"ok"}
